12
31
36
42
47
49
71
101
109
140
157
158
162
173
178
196
204
205
210
214
218
227
243
245
255
257
259
271
293
298
302
308
312
324
332
340
343
345
349
362
365
368
383
386
398
399
401
403
407
414
446
454
455
469
476
506
510
514
520
527
534
547
550
564
565
608
624
635
647
694
706
750
751
753
754
765
777
792
794
798
802
803
808
809
810
837
849
852
862
876
880
888
896
908
924
931
940
944
951
977
988
997
1006
1025
1026
1031
1034
1036
1053
1056
1058
1064
1084
1105
1108
1119
1120
1122
1130
1131
1134
1147
1157
1166
1171
1194
1203
1204
1210
1232
1286
1309
1321
1323
1325
1326
1328
1345
1357
1359
1369
1371
1395
1400
1411
1416
1422
1432
1441
1454
1455
1461
1471
1501
1508
1519
1522
1532
1533
1551
1554
1567
1568
1574
1590
1594
1620
1623
1641
1661
1682
1712
1713
1727
1742
1763
1769
1775
1799
1804
1805
1806
1808
1818
1819
1825
1833
1839
1845
1861
1863
1875
1882
1895
1903
1905
1912
1933
1951
1957
1961
1965
1966
1987
1989
1990
1994
2014
2044
2051
2056
2098
2115
2120
2131
2133
2138
2174
2186
2190
2231
2243
2251
2262
2288
2290
2319
2331
2343
2350
2352
2354
2362
2363
2364
2373
2375
2383
2423
2428
2442
2443
2455
2471
2477
2487
2502
2503
2507
2514
2517
2530
2532
2535
2545
2553
2565
2573
2577
2594
2598
2600
2606
2608
2610
2616
2635
2643
2677
2686
2692
2696
2708
2739
2750
2752
2761
2762
2767
2771
2772
2773
2782
2791
2794
2811
2824
2850
2862
2864
2874
2875
2881
2902
2904
2915
2927
2930
2937
2945
2968
2982
2990
2999
3005
3006
3022
3029
3034
3052
3065
3066
3073
3101
3108
3129
3134
3145
3146
3156
3174
3185
3192
3193
3199
3202
3219
3236
3273
3279
3290
3309
3323
3335
3347
3360
3365
3366
3394
3398
3406
3408
3429
3457
3458
3476
3481
3503
3517
3518
3521
3535
3536
3552
3554
3573
3575
3601
3616
3625
3629
3635
3636
3656
3699
3702
3710
3718
3720
3721
3724
3739
3756
3760
3768
3773
3778
3810
3815
3843
3871
3874
3875
3876
3898
3902
3904
3905
3920
3926
3941
3944
3946
3952
3955
3971
3974
3984
3998
3999
4003
4007
4010
4013
4016
4017
4019
4046
4047
4049
4065
4082
4095
4107
4108
4117
4128
4133
