\relax 
\@writefile{toc}{\contentsline {section}{\numberline {1}Naive Bayes Classifier and Logistic Regression [15 points]}{1}}
\@writefile{toc}{\contentsline {subsection}{\numberline {1.1}[3 points] If A and B are DISJOINT events, and P(B) $>$ 0, what is the value of P(A/B)?}{1}}
\@writefile{toc}{\contentsline {subsection}{\numberline {1.2} [9 points] Prove Naive Bayes follows logistic regression}{1}}
\@writefile{toc}{\contentsline {subsection}{\numberline {1.3}[4 points] Suppose that X is a random variable for which \[ E(X) = \mu \textrm  { and } Var(X) = \sigma ^2 \textrm  { , }\] \textrm  { and let c be an arbitrary constant. What is the value of } \[E[(X - c)^2] \textrm  { ? } \]}{1}}
\newlabel{eq:5}{{1}{2}}
\@writefile{toc}{\contentsline {subsection}{\numberline {1.4}[10 points] Given two binary random variables X and Y, We are given the following quantities: P(X = 0, Y = 0) = 0.2; P(X = 0, Y = 1) = 0.2; P(X = 1, Y = 0) = 0.2 and P(X = 1, Y = 1) = 0.4; }{2}}
\@writefile{toc}{\contentsline {subsubsection}{\numberline {1.4.1}[2 points] What is P(X = 0)?}{2}}
\@writefile{toc}{\contentsline {subsubsection}{\numberline {1.4.2}[3 points] What is P(Y = 1)?}{2}}
\@writefile{toc}{\contentsline {subsubsection}{\numberline {1.4.3}[2 points] What is P(X = 0/Y = 1)?}{2}}
\@writefile{toc}{\contentsline {subsubsection}{\numberline {1.4.4}[3 points] [True or False] X and Y are NOT independent with each other.}{2}}
\@writefile{toc}{\contentsline {section}{\numberline {2}Maximum Likelihood Estimation (10 points)}{3}}
\@writefile{toc}{\contentsline {subsection}{\numberline {2.1}[5 points.] Suppose we flip a coin, and observe either a head or a tail. The probability of observing a head in each trial is p where \[ (0 \leq p \leq 1 ).\] If we flip the coins six times, and observe (\emph  {head, head, tail, tail, head, tail)}, what is the maximum likelihood estimation of p? Justify your answer.}{3}}
\@writefile{toc}{\contentsline {subsection}{\numberline {2.2}[5 points.] Suppose we flip a coin, and observe either a head or a tail. The probability of observing a head in the first trial is p \[ (0 \leq p \leq 1 ).\] The probability of observing a head in the second trial is \emph  {2p}. The probability of observing a head in the third and fourth trials is \emph  {3p}, respectively. The probability of observing a head in the fifth trial and six trial is \emph  {4p}. If we flip the coins six times, and observe (head, head, tail, tail, head, head), what is the maximum likelihood estimation of p? Justify your answer.}{4}}
\@writefile{toc}{\contentsline {section}{\numberline {3}Bayes Classifier (25 points)}{5}}
\@writefile{toc}{\contentsline {subsection}{\numberline {3.1} Continuous Bayes Classifier. }{5}}
\@writefile{toc}{\contentsline {subsubsection}{\numberline {3.1.1}We want to build a Bayes Classifier for a binary classification task (y = 1 or y = 2) with a 1-dimensional input feature (x). We know the following quantities: \[ (1) P(y = 1) = 0.9; \] \[ (2) P(x|y = 1) = \left . \def \par }{5}}
\@writefile{toc}{\contentsline {subsubsection}{\numberline {3.1.2}[3pts]. What is the prior of the class label y = 2?}{5}}
\@writefile{toc}{\contentsline {subsubsection}{\numberline {3.1.3}[2pts]. What is P(y = 1/x)?}{5}}
\@writefile{toc}{\contentsline {subsubsection}{\numberline {3.1.4}[2pts]. For x = 1, what is class label your classifier will assign? What is the risk of this decision?}{6}}
\newlabel{eq:1}{{2}{6}}
\newlabel{eq:2}{{3}{7}}
\@writefile{toc}{\contentsline {subsubsection}{\numberline {3.1.5}[2pts]. For x = 3, what is class label your classifier will assign? What is the risk of this decision?}{7}}
\newlabel{eq:3}{{4}{7}}
\newlabel{eq:4}{{5}{7}}
\@writefile{toc}{\contentsline {subsubsection}{\numberline {3.1.6}[2pts]. What is the decision boundary of your Bayes classifier?}{8}}
\@writefile{toc}{\contentsline {subsubsection}{\numberline {3.1.7}[2pts]. What is the Bayes error of your Bayes classifier?}{8}}
\@writefile{toc}{\contentsline {subsection}{\numberline {3.2} Discrete Bayes Classifier.}{8}}
\newlabel{table:1}{{3.2.1}{8}}
\newlabel{table:2}{{3.2.1}{8}}
\@writefile{toc}{\contentsline {subsubsection}{\numberline {3.2.1} We want to build a Bayes Classifier for a binary classification task (y = 1 or y = 2) with two binary features (x_1 \textrm  { and } x_2). \textrm  { We know the following quantities: } \GenericError  {               }{LaTeX Error: There's no line here to end}{See the LaTeX manual or LaTeX Companion for explanation.}{Your command was ignored.\MessageBreak Type  I <command> <return>  to replace it with another command,\MessageBreak or  <return>  to continue without it.}\par \let \reserved@d = *\def \par }{8}}
\@writefile{toc}{\contentsline {subsubsection}{\numberline {3.2.2}[2pts]. What is the prior of the class label y = 2?}{8}}
\@writefile{toc}{\contentsline {subsubsection}{\numberline {3.2.3}[2pts]. What is P(y = 2/x_1 = 0, x_2 = 0)?}{9}}
\newlabel{table:3}{{3.2.3}{9}}
\newlabel{table:4}{{3.2.3}{9}}
\@writefile{toc}{\contentsline {subsubsection}{\numberline {3.2.4}[2pts]. For an example with the following features x1 = 0; x2 = 1, what is class label your classifier will assign? What is the risk of this decision?}{9}}
\@writefile{toc}{\contentsline {subsubsection}{\numberline {3.2.5}[2pts]. For an example with the following features x1 = 1; x2 = 0, what is class label your classifier will assign? What is the risk of this decision?}{10}}
\@writefile{toc}{\contentsline {subsubsection}{\numberline {3.2.6}[2pts]. What is the decision boundary of your Bayes classifier?}{10}}
\@writefile{toc}{\contentsline {subsubsection}{\numberline {3.2.7}[2pts]. What is the Bayes error of your Bayes classifier?}{10}}
\@writefile{toc}{\contentsline {section}{\numberline {4}Naive Bayes Classifier [15 points]}{11}}
\@writefile{toc}{\contentsline {subsection}{\numberline {4.1}Given the training data set in Figure 1, we want to train a binary classifier, with (1) the last column being the class label (i.e., whether or not to enjoy the sport); and (2) each column of X being a binary feature}{11}}
\@writefile{toc}{\contentsline {subsection}{\numberline {4.2}[5 points] How many independent parameters are there in your Naive Bayes classifier? What are they? Justify your answer.}{11}}
\@writefile{toc}{\contentsline {subsection}{\numberline {4.3}[5 points] What are your estimations for these parameters? (say using standard MLE).}{12}}
\@writefile{toc}{\contentsline {subsection}{\numberline {4.4}[5 points] Now, given a new (test) example x = (sunny,warm, high, strong, cool, change), what is P(y = 1/x)? Which class label will the naive Bayes classifer assign to this example? Justify your answer.}{12}}
\newlabel{eq:6}{{6}{13}}
\newlabel{eq:7}{{7}{13}}
\@writefile{toc}{\contentsline {section}{\numberline {5}Play with Data (30 points)}{13}}
\@writefile{toc}{\contentsline {subsection}{\numberline {5.1}[8 points] Plot the frequency histogram on ’GapBetweenPACs’ and ’ActionsInPAC’ attributes, respectively. What is your observation regarding the figures?}{13}}
\newlabel{image:2}{{5.1}{13}}
\@writefile{toc}{\contentsline {subsection}{\numberline {5.2}[6 points] Plot the scatter figure for the following pairs of features: (1) SelectByHotkeys vs. AssignToHotkeys, and (2) NumberOfPACs vs. GapBetweenPACs, respectively.}{14}}
\newlabel{image:3}{{5.2}{14}}
\newlabel{image:4}{{5.2}{14}}
\@writefile{toc}{\contentsline {subsection}{\numberline {5.3}[16 points] For all the attributes from the 6-th attribute to the 20-th attribute, compute the Pearson Correlation Coefficient (PCC) between each two different attributes and save the results as a matrix in a .mat file. What are the maximum and minimum PCC values and what are corresponding attribute pairs? Plot the scatter figures for these attribute pairs. What is the main difference between these two scatter figures?}{14}}
\newlabel{image:5}{{5.3}{14}}
\newlabel{image:6}{{5.3}{14}}
\newlabel{image:7}{{5.3}{14}}
